<?xml version="1.0" encoding="utf-8"?>
<!-- Generator: Adobe Illustrator 17.0.0, SVG Export Plug-In . SVG Version: 6.00 Build 0)  -->
<!DOCTYPE svg PUBLIC "-//W3C//DTD SVG 1.1//EN" "http://www.w3.org/Graphics/SVG/1.1/DTD/svg11.dtd">
<svg version="1.1" id="Layer_1_xA0_Imagem_1_" xmlns="http://www.w3.org/2000/svg" xmlns:xlink="http://www.w3.org/1999/xlink"
	 x="0px" y="0px" width="207px" height="160px" viewBox="0 0 207 160" enable-background="new 0 0 207 160" xml:space="preserve">
<g>
	<path d="M5.153,118.41c5.01,9.438,6.038,21.087,15.363,29.13c1.145-6.929,1.528-13.403,3.336-19.45
		c6.567-21.963,13.625-43.779,20.461-65.662c1.038-3.323,2.96-3.836,6.106-2.751c8.959,3.088,17.939,6.142,27.026,8.816
		c3.881,1.142,4.077,4.079,4.432,6.936c1.535,12.365,2.886,24.753,4.309,37.132c1.195,10.396,2.406,20.79,3.587,31.187
		c0.206,1.814,0.343,3.639,0.436,5.463c0.22,4.295-2.136,5.659-6.129,6.03c-10.032,0.934-20.01,2.494-30.05,3.291
		c-8.048,0.639-16.155,0.53-24.237,0.738c-0.992,0.026-1.994-0.123-2.98-0.049c-11.189,0.842-17.276-2.172-20.946-12.608
		c-2.424-6.895-2.967-14.496-3.911-21.838c-0.256-1.99,1.093-4.186,1.705-6.287C4.159,118.461,4.656,118.435,5.153,118.41z"/>
	<path d="M123.436,129.767c-0.48-9.133-0.882-18.272-1.488-27.397c-0.176-2.649,0.352-4.301,3.029-5.448
		c5.961-2.555,11.691-5.658,17.694-8.097c1.795-0.729,4.645-0.771,6.228,0.178c19.153,11.484,32.574,27.693,39.079,49.207
		c1.069,3.535,2.433,3.931,5.241,2.327c7.134-4.074,7.626-13.546,0.698-17.83c-5.867-3.628-8.095-8.734-6.967-15.248
		c1.225-7.074,3.624-13.767,10.948-16.713c1.833-0.737,4.471,0.529,6.74,0.874c-0.765,2.109-1.185,4.448-2.392,6.263
		c-1.253,1.884-3.535,3.063-4.899,4.897c-3.415,4.592-2.819,9.496,1.315,13.427c13.516,12.852,8.933,30.593-9.185,36.234
		c-4.522,1.408-8.603,4.951-13.125,5.484c-9.172,1.081-18.511,1.07-27.773,0.941c-6.617-0.092-13.216-1.193-19.834-1.689
		c-4.798-0.359-6.287-2.143-6.151-6.913c0.195-6.821,0.05-13.652,0.05-20.478C122.908,129.781,123.172,129.774,123.436,129.767z"/>
	<path d="M79.773,63.838c-10.571-3.767-20.114-7.071-29.542-10.672c-0.983-0.375-2.102-2.754-1.792-3.796
		c4.031-13.507,8.064-27.027,12.725-40.322c0.97-2.766,4.501-4.634,6.851-6.916c1.062,2.953,2.56,5.835,3.052,8.88
		c0.418,2.588,1.11,4.037,3.845,4.034c6.195-0.006,10.09,3.129,12.855,8.568c0.801,1.575,3.458,2.468,5.447,3.095
		c1.68,0.53,3.681-0.043,5.438,0.338c4.049,0.878,9.072,0.32,10.366,5.97c1.318,5.757-1.841,13.38-6.941,15.82
		c-3.419,1.636-7.114,2.801-10.795,3.756C85.759,54.028,80.575,55.629,79.773,63.838z"/>
	<path d="M147.154,66.974c-0.823,5.443-1.295,9.752-2.224,13.961c-0.269,1.219-1.653,2.571-2.864,3.137
		c-5.871,2.742-11.818,5.337-17.838,7.732c-1.124,0.447-3.111,0.223-4.006-0.523c-3.111-2.593-5.844-5.633-8.855-8.354
		c-4.531-4.095-4.727-11.432-0.31-15.831c0.707-0.704,1.654-1.34,2.002-2.204c2.539-6.301,6.944-9.722,13.87-10.414
		c1.39-0.139,2.404-3.212,3.753-4.795c2.069-2.428,4.277-4.738,6.427-7.098c1.808,2.753,4.184,5.295,5.302,8.305
		C144.483,56.47,145.821,62.322,147.154,66.974z"/>
</g>
</svg>
