<?xml version="1.0" encoding="utf-8"?>
<!-- Generator: Adobe Illustrator 17.0.0, SVG Export Plug-In . SVG Version: 6.00 Build 0)  -->
<!DOCTYPE svg PUBLIC "-//W3C//DTD SVG 1.1//EN" "http://www.w3.org/Graphics/SVG/1.1/DTD/svg11.dtd">
<svg version="1.1" id="Layer_1_xA0_Imagem_1_" xmlns="http://www.w3.org/2000/svg" xmlns:xlink="http://www.w3.org/1999/xlink"
	 x="0px" y="0px" width="221px" height="221px" viewBox="0 0 221 221" enable-background="new 0 0 221 221" xml:space="preserve">
<g>
	<path d="M83,1c46.333,0,92.667,0,139,0c0,73.667,0,147.333,0,221c-73.667,0-147.333,0-221,0c0-60,0-120,0-180
		c2.269-4.137,5.826-5.297,10.408-5.261c19.591,0.157,39.183,0.072,58.775,0.061c7.605-0.004,7.609-0.02,7.621-7.833
		c0.009-5.811,0.13-11.626-0.033-17.432C77.644,7.005,79.002,3.394,83,1z M206.903,111.767c0-29.162,0.003-58.323-0.002-87.485
		c-0.001-8.181-0.012-8.195-8.411-8.197c-32.494-0.007-64.988-0.007-97.482-0.002c-7.937,0.001-7.994,0.056-7.995,8.166
		c-0.005,44.326-0.002,88.651-0.001,132.977c0,14.331-0.021,28.662,0.013,42.992c0.015,6.197,0.45,6.61,6.447,6.675
		c3.332,0.036,6.682-0.201,9.994,0.059c4.72,0.371,6.498-1.417,6.421-6.271c-0.233-14.494-0.109-28.994-0.066-43.491
		c0.024-7.927,2.509-10.357,10.554-10.373c15.164-0.031,30.328-0.021,45.492-0.006c10.16,0.01,12.308,2.156,12.322,12.308
		c0.02,14.164,0.086,28.329-0.033,42.492c-0.033,3.856,1.439,5.497,5.302,5.319c3.492-0.162,6.997-0.01,10.496-0.029
		c6.685-0.037,6.939-0.27,6.942-7.15C206.91,170.423,206.902,141.095,206.903,111.767z M77.804,129.008
		c0-23.816-0.091-47.634,0.078-71.449c0.033-4.657-1.304-6.514-6.218-6.444c-16.485,0.234-32.977,0.233-49.463,0.003
		c-4.949-0.069-6.233,1.91-6.222,6.503c0.109,47.632,0.058,95.265,0.084,142.898c0.003,5.973,0.494,6.409,6.696,6.42
		c16.155,0.026,32.31,0.029,48.466-0.005c6.225-0.013,6.563-0.348,6.569-6.476C77.818,176.641,77.804,152.824,77.804,129.008z
		 M168.795,184.327c0-5.997-0.098-11.995,0.037-17.989c0.079-3.511-1.131-5.225-4.888-5.172c-9.326,0.13-18.656,0.105-27.983,0.011
		c-3.385-0.034-4.807,1.349-4.783,4.755c0.083,11.992,0.078,23.986,0,35.979c-0.022,3.283,1.121,4.943,4.628,4.908
		c9.494-0.095,18.989-0.077,28.483-0.012c3.151,0.022,4.559-1.32,4.517-4.491C168.726,196.321,168.783,190.324,168.795,184.327z"/>
	<path d="M124.173,80.922c-0.029,6.99-0.29,7.228-7.922,7.201c-6.88-0.024-7.266-0.418-7.256-7.393
		c0.011-7.325,0.538-7.838,8.007-7.797C123.891,72.97,124.204,73.319,124.173,80.922z"/>
	<path d="M191.177,80.803c-0.015,7.054-0.318,7.338-7.807,7.326c-7.027-0.012-7.411-0.417-7.368-7.791
		c0.04-6.88,0.613-7.417,7.906-7.404C190.877,72.947,191.193,73.289,191.177,80.803z"/>
	<path d="M116.977,34.003c6.948,0.026,7.228,0.332,7.198,7.886c-0.028,6.958-0.393,7.296-7.829,7.256
		c-6.822-0.037-7.366-0.62-7.35-7.891C109.01,34.532,109.623,33.976,116.977,34.003z"/>
	<path d="M183.158,49.145c-6.785-0.018-7.161-0.408-7.156-7.426c0.005-7.123,0.574-7.705,7.53-7.715
		c7.173-0.01,7.671,0.517,7.641,8.087C191.146,48.901,190.846,49.165,183.158,49.145z"/>
	<path d="M124.167,119.805c-0.024,6.954-0.4,7.303-7.828,7.258c-6.8-0.041-7.386-0.671-7.35-7.902
		c0.033-6.712,0.665-7.285,7.995-7.253C123.891,111.939,124.193,112.271,124.167,119.805z"/>
	<path d="M191.167,119.786c-0.019,7-0.337,7.297-7.791,7.267c-6.744-0.027-7.378-0.66-7.387-7.36c-0.009-7.2,0.605-7.8,7.978-7.783
		C190.872,111.926,191.187,112.27,191.167,119.786z"/>
	<path d="M142.807,41.603c-0.006-7.187,0.37-7.592,7.048-7.602c6.859-0.01,7.322,0.451,7.34,7.311
		c0.019,7.489-0.323,7.857-7.309,7.832C143.107,49.119,142.814,48.806,142.807,41.603z"/>
	<path d="M157.194,80.664c-0.011,7.11-0.354,7.466-7.199,7.464c-6.898-0.002-7.216-0.356-7.187-7.977
		c0.026-6.87,0.419-7.251,7.442-7.221C156.853,72.959,157.206,73.351,157.194,80.664z"/>
	<path d="M157.196,119.073c0.037,7.509-0.318,7.934-6.655,7.989c-7.306,0.063-7.722-0.336-7.734-7.415
		c-0.012-7.331,0.332-7.717,6.904-7.739C156.759,111.882,157.163,112.269,157.196,119.073z"/>
	<path d="M60.293,189.234c-7.721-0.196-7.721-0.196-7.493-8.556c0.152-5.58,0.887-6.07,8.711-5.808
		c5.604,0.188,5.689,0.828,5.792,9.837C67.371,190.642,63.621,189.286,60.293,189.234z"/>
	<path d="M32.822,189.228c-3.307,0.575-6.314,0.416-6.121-5.304c0.29-8.554,0.273-8.994,6.7-9.062
		c7.218-0.076,7.718,0.329,7.801,6.328C41.31,188.881,41.106,189.097,32.822,189.228z"/>
	<path d="M33.688,84.166c-6.55-0.033-6.932-0.458-6.878-7.653c0.048-6.461,0.407-6.771,7.78-6.704
		c6.3,0.057,6.634,0.429,6.614,7.373C41.185,83.85,40.806,84.202,33.688,84.166z"/>
	<path d="M60.146,84.166c-7.006,0.014-7.349-0.32-7.35-7.165c-0.001-6.903,0.299-7.199,7.3-7.193
		c6.736,0.006,7.08,0.338,7.108,6.887C67.235,83.775,66.879,84.152,60.146,84.166z"/>
	<path d="M41.204,111.86c0.015,7.023-0.296,7.341-7.179,7.344c-6.815,0.002-7.183-0.345-7.216-6.817
		c-0.037-7.201,0.295-7.565,6.937-7.592C40.847,104.767,41.19,105.092,41.204,111.86z"/>
	<path d="M67.204,112.157c-0.017,6.757-0.357,7.078-7.485,7.047c-6.64-0.029-6.969-0.39-6.923-7.609
		c0.041-6.477,0.388-6.803,7.237-6.801C66.907,104.795,67.222,105.118,67.204,112.157z"/>
	<path d="M34.179,139.796c6.736,0.017,7.057,0.358,7.025,7.491c-0.029,6.631-0.394,6.962-7.601,6.917
		c-6.436-0.041-6.797-0.426-6.793-7.241C26.815,140.116,27.162,139.779,34.179,139.796z"/>
	<path d="M67.204,146.786c0.023,7.072-0.3,7.408-7.114,7.418c-6.99,0.01-7.299-0.297-7.295-7.237
		c0.004-6.793,0.334-7.138,6.865-7.171C66.838,139.759,67.183,140.079,67.204,146.786z"/>
</g>
</svg>
