<?xml version="1.0" encoding="utf-8"?>
<!-- Generator: Adobe Illustrator 17.1.0, SVG Export Plug-In . SVG Version: 6.00 Build 0)  -->
<!DOCTYPE svg PUBLIC "-//W3C//DTD SVG 1.1//EN" "http://www.w3.org/Graphics/SVG/1.1/DTD/svg11.dtd">
<svg version="1.1" id="Layer_1_xA0_Imagem_1_" xmlns="http://www.w3.org/2000/svg" xmlns:xlink="http://www.w3.org/1999/xlink"
	 x="0px" y="0px" viewBox="0 0 225 139" enable-background="new 0 0 225 139" xml:space="preserve">
<g>
	<path d="M226,129c0,3.7,0,7.3,0,11c-3.7,0-7.3,0-11,0c-2.5-3.1-6.5-5.3-5.3-10.4c1.3-5.6,2.7-11.3,3.7-17c0.3-1.6-0.3-3.7-1.2-5
		c-3.2-4.2-3.3-7.5-0.1-11.7c1.2-1.5,2.1-3.7,2.2-5.6c0.2-13.7,0.1-27.3,0.1-41c0-1.4-0.3-2.8-0.5-4.7c-2.8,1-4.9,1.7-7.1,2.5
		c-30,11.7-60,23.4-90.1,34.9c-2.9,1.1-7,1.2-10,0.1c-14.5-5.2-28.8-11-43.2-16.7C42.7,57.4,21.8,49.2,1,41c0-0.3,0-0.7,0-1
		c1-0.2,1.9-0.4,2.9-0.7C35.3,28.2,66.8,17.1,98.2,5.9c4-1.4,7.8-3.2,11.8-4.9c1,0,2,0,3,0c1.3,0.7,2.5,1.6,3.8,2.1
		c22.1,7.8,44.1,15.5,66.2,23.3c12.7,4.5,25.3,8.9,37.5,13.3c0,15.9,0.3,31.2-0.2,46.4c-0.2,5.8,1.3,10.2,5.6,13.9c0,1,0,2,0,3
		c-1.8,2.5-5.2,5.3-4.9,7.5C221.9,116.8,224.2,122.9,226,129z"/>
	<path d="M36.4,64.3c9.6,3.7,18.4,7,27.2,10.4c14.1,5.5,28.2,10.9,42.2,16.6c4.1,1.7,7.9,1.6,12-0.1c20.8-8.3,41.7-16.3,62.6-24.5
		c1.8-0.7,3.7-1.3,6-2.2c0.2,1.6,0.6,2.9,0.6,4.1c0.1,5.8-0.4,11.7,0.1,17.5c1.2,14.2-5.7,23.7-17,30.9
		c-12.7,8.2-26.8,12.2-41.6,14.3c-22,3.2-43.4,0.4-63.8-8.5c-6.2-2.7-12-6.5-17.3-10.7c-7.4-5.8-11.5-13.5-11-23.4
		C36.7,81.1,36.4,73.1,36.4,64.3z"/>
</g>
</svg>
