<?xml version="1.0" encoding="utf-8"?>
<!-- Generator: Adobe Illustrator 17.1.0, SVG Export Plug-In . SVG Version: 6.00 Build 0)  -->
<!DOCTYPE svg PUBLIC "-//W3C//DTD SVG 1.1//EN" "http://www.w3.org/Graphics/SVG/1.1/DTD/svg11.dtd">
<svg version="1.1" id="Layer_1_xA0_Imagem_1_" xmlns="http://www.w3.org/2000/svg" xmlns:xlink="http://www.w3.org/1999/xlink"
	 x="0px" y="0px" viewBox="0 0 225 225" enable-background="new 0 0 225 225" xml:space="preserve">
<g>
	<path d="M195,226c-5.1-2.8-10.9-4.9-15.3-8.7c-15.2-13.3-10.6-33.9,5.6-42.9c5-2.8,6.1-5.7,6.1-10.9c-0.2-47-0.1-94-0.1-141
		c0-4.2,0.6-8.3,0.5-12.5c-0.1-3.8,1.4-6.6,4.1-9.1c1,0,2,0,3,0c4.5,2.3,5.7,5.9,5.7,11c-0.2,50.8-0.1,101.5-0.2,152.3
		c0,4.6,0.5,8,5.6,9.6c2.2,0.7,4.5,2.5,5.9,4.4c3.6,5,6.7,10.4,10,15.7c0,2.3,0,4.7,0,7c-2.1,6.3-4.3,12.8-10,16.7
		c-4.7,3.2-10,5.5-15,8.3C199,226,197,226,195,226z M212.4,198c0-9.1-5.3-14.4-14.6-14.4c-8.8,0-14.2,5.4-14.3,14.2
		c0,9.1,5.3,14.6,14.4,14.6C207.3,212.4,212.4,207.3,212.4,198z"/>
	<path d="M30,1c5,2.4,5.6,6.9,5.6,11.7c0,22.8,0.1,45.6,0,68.4c0,3.8,1.1,5.8,4.6,7.7c9.9,5.4,16.7,13.4,16.3,25.4
		c-0.4,11.5-6.9,19.5-17,24.4c-3.4,1.6-3.9,3.9-3.9,7.1c0.1,22.8,0,45.6,0,68.4c0,4.6-0.6,8.9-4.6,11.9c-1.3,0-2.7,0-4,0
		c-3-2.5-3.8-5.7-3.9-9.6c-0.1-23.2-0.6-46.3-0.6-69.5c0-4.4-0.8-7.4-5.3-9.3c-3.1-1.3-6.2-3.7-8-6.5C5.9,126.4,3.7,121.1,1,116
		c0-1.7,0-3.3,0-5c0.4-0.7,1-1.4,1.2-2.2c1.9-9.5,7.9-16,16.2-20.2c3.3-1.7,4.1-3.5,4.1-6.9C22.6,58,23,34.3,23.2,10.6
		c0-3.9,0.7-7.1,3.8-9.6C28,1,29,1,30,1z M43.4,113.6c0-9-5.6-14.7-14.4-14.7c-8.6,0-14.4,6-14.4,14.9c0,8.6,5.7,14.2,14.3,14.3
		C38,128.2,43.4,122.7,43.4,113.6z"/>
	<path d="M115,1c5,2.3,10.7,3.9,15,7.1c16.9,12.7,13.3,36-4.6,45.1c-3.9,2-4.9,4.4-4.9,8.5c-0.2,51.9-0.6,103.9-0.7,155.8
		c0,4.1-1.6,6.5-4.8,8.4c-1,0-2,0-3,0c-3.7-2.1-4.7-5.3-4.7-9.5c0.1-49.1,0-98.2-0.1-147.3c0-2.2-0.1-4.3-0.1-6.5
		c0-4.7-1.7-7.5-6.2-10C90.7,47,84.9,38,86.5,25.9C87.9,14.7,95,7.6,105.1,3.2c1.6-0.7,3.3-1.4,4.9-2.2C111.7,1,113.3,1,115,1z
		 M113.5,43.4c9.1,0,14.8-5.6,14.7-14.4c-0.1-8.8-5.9-14.4-14.8-14.4c-8.7,0-14.2,5.6-14.4,14.3C98.9,37.7,104.6,43.4,113.5,43.4z"
		/>
</g>
</svg>
