<?xml version="1.0" encoding="utf-8"?>
<!-- Generator: Adobe Illustrator 17.0.0, SVG Export Plug-In . SVG Version: 6.00 Build 0)  -->
<!DOCTYPE svg PUBLIC "-//W3C//DTD SVG 1.1//EN" "http://www.w3.org/Graphics/SVG/1.1/DTD/svg11.dtd">
<svg version="1.1" id="Layer_1_xA0_Imagem_1_" xmlns="http://www.w3.org/2000/svg" xmlns:xlink="http://www.w3.org/1999/xlink"
	 x="0px" y="0px" width="508.8px" height="399.6px" viewBox="0 0 508.8 399.6" enable-background="new 0 0 508.8 399.6"
	 xml:space="preserve">
<g>
	<path d="M0.24,303.84c0-5.04,0-10.08,0-15.12c0.241-0.361,0.504-0.71,0.721-1.085c16.166-27.938,32.325-55.881,48.494-83.818
		c7.884-13.623,15.787-27.235,23.681-40.852c1.704-2.939,3.811-5.523,6.607-7.5c38.407-27.168,76.818-54.33,115.217-81.509
		c3.933-2.784,8.215-3.61,12.863-2.499c10.834,2.588,21.659,5.209,32.486,7.829c2.876,0.696,5.285-0.08,7.269-2.229
		c19.8-21.451,39.602-42.9,59.389-64.362c5.475-5.939,12.093-9.882,20.016-11.525c2.177-0.451,4.41-0.628,6.618-0.931
		c0.4,0,0.8,0,1.2,0c0.549,0.069,1.097,0.168,1.648,0.204c8.837,0.581,16.169,4.192,21.807,11.032
		c10.823,13.129,10.321,32.474-1.107,45.497c-11.947,13.614-23.893,27.228-35.83,40.852c-1.129,1.289-2.182,2.643-3.364,4.081
		c4.481,3.402,8.811,6.817,13.271,10.053c12.79,9.282,26.059,17.756,40.314,24.692c11.523,5.606,23.548,8.195,36.307,7.542
		c1.858-0.095,3.714-0.234,5.67-0.359c0-3.617-0.084-7.055,0.02-10.487c0.149-4.914,2.891-8.587,7.245-9.744
		c1.295-0.344,2.679-0.487,4.022-0.49c18.834-0.039,37.668-0.043,56.502-0.045c5.838,0,11.677-0.022,17.514,0.066
		c5.291,0.08,8.685,2.948,9.819,8.103c0.127,0.576,0.267,1.148,0.402,1.723c0,74.56,0,149.12,0,223.68
		c-0.082,0.426-0.194,0.85-0.24,1.28c-0.595,5.536-3.279,8.478-8.718,9.433c-1.253,0.22-2.544,0.32-3.818,0.322
		c-19.157,0.026-38.314,0.028-57.471,0.032c-4.759,0.001-9.522,0.12-14.275-0.054c-5.045-0.184-8.757-2.595-10.601-7.416
		c-0.578-1.511-1.58-2.41-3.009-2.822c-1.097-0.316-2.27-0.466-3.416-0.506c-8.348-0.291-16.614,0.562-24.815,2.024
		c-9.357,1.669-18.686,3.496-28.035,5.21c-14.442,2.648-29.022,3.752-43.685,3.413c-11.709-0.27-23.412-0.831-35.114-1.354
		c-8.259-0.369-16.347-1.738-24.207-4.405c-4.156-1.41-8.384-2.61-12.592-3.865c-2.567-0.765-4.9-0.476-7.311,0.977
		c-14.621,8.812-30.208,11.418-46.725,6.541c-4.342-1.282-8.534-3.139-12.686-4.978c-2.849-1.262-5.427-1.381-8.05,0.382
		c-0.926,0.622-1.922,1.145-2.91,1.668c-8.536,4.514-17.561,6.287-27.134,4.645c-8.945-1.534-16.625-5.732-23.5-11.515
		c-0.735-0.618-1.261-0.753-2.184-0.285c-24.292,12.317-48.604,24.594-72.913,36.877c-4.135,2.089-8.257,4.202-12.407,6.262
		c-7.861,3.901-16.037-2.895-14.811-10.455c0.191-1.176,0.475-2.351,0.85-3.482c3.992-12.047,8.026-24.081,12.019-36.128
		c2.311-6.972,4.556-13.966,6.872-20.936c0.255-0.768,0.129-1.185-0.572-1.528c-0.895-0.438-1.745-0.973-2.652-1.381
		c-5.518-2.483-10.591-5.692-14.882-9.938C6.594,311.238,3.496,307.459,0.24,303.84z M303.47,118.28
		c-0.387,0.419-0.746,0.788-1.085,1.175c-15.491,17.691-30.957,35.404-46.497,53.052c-1.926,2.187-2.791,4.556-2.793,7.401
		c-0.006,10.278-0.023,20.557-0.121,30.835c-0.025,2.67-0.151,5.371-0.579,8.001c-3.942,24.201-25.117,42.127-49.669,42.129
		c-23.797,0.002-47.594-0.019-71.392,0.012c-7.757,0.01-15.526-0.103-23.266,0.297c-9.008,0.465-17.139,3.607-24.177,9.37
		c-13.948,11.419-11.399,33.418,4.774,41.049c4.777,2.254,9.872,3.252,15.117,3.262c31.555,0.062,63.109,0.061,94.664,0.103
		c2.475,0.003,4.97-0.001,7.419,0.3c3.906,0.481,7.049,2.601,9.994,5.097c18.048,15.298,38.544,24.616,62.486,25.441
		c10.309,0.355,20.618,0.771,30.93,0.985c8.835,0.183,17.676,0.154,26.487-0.746c12.056-1.232,23.99-3.236,35.869-5.594
		c12.36-2.454,24.741-4.703,37.42-4.523c1.304,0.018,2.611-0.132,3.928-0.204c0-57.148,0-114.197,0-171.193
		c-2.428,0-4.782-0.079-7.13,0.015c-7.093,0.284-14.134,0.096-21.111-1.457c-10.989-2.446-21.284-6.679-30.854-12.481
		c-11.614-7.042-22.989-14.481-34.432-21.804C314.103,125.375,308.838,121.818,303.47,118.28z M434.361,144.09
		c0,0.636,0.001,1.151,0,1.666c-0.036,28.877-0.071,57.754-0.107,86.631c-0.044,36.196-0.091,72.393-0.131,108.589
		c-0.006,5.006,1.253,6.172,6.278,6.131c10.357-0.085,20.715-0.126,31.073-0.154c4.159-0.011,8.319,0.129,12.476,0.071
		c2.634-0.037,3.856-1.196,4.282-3.778c0.149-0.9,0.17-1.83,0.169-2.746c-0.018-24.718-0.061-49.435-0.069-74.153
		c-0.013-38.797,0-77.593-0.014-116.39c-0.001-1.943-0.155-3.887-0.239-5.868C470.115,144.09,452.33,144.09,434.361,144.09z
		 M228.509,97.845c-6.006-1.397-11.708-2.766-17.432-4.04c-4.163-0.926-7.871-0.025-11.422,2.486
		c-34.3,24.258-68.649,48.447-103.006,72.624c-3.372,2.373-6.065,5.29-8.117,8.844c-21.811,37.783-43.63,75.562-65.429,113.353
		c-0.493,0.855-0.833,1.813-1.136,2.758c-0.541,1.682-0.371,3.305,1.007,4.521c1.937,1.709,3.82,3.556,5.998,4.902
		c5.146,3.181,10.883,4.764,16.884,5.3c3.841,0.343,7.667,0.199,11.369-1.117c0.776-0.276,0.956-0.591,0.675-1.397
		c-0.829-2.373-1.674-4.749-2.316-7.176c-2.509-9.488-2.182-18.759,2.436-27.622c3.64-6.986,9.023-12.409,15.61-16.577
		c6.209-3.929,12.593-7.585,18.927-11.314c2.643-1.556,4.96-3.45,7.043-5.711c39.813-43.202,79.65-86.381,119.481-129.566
		C222.141,104.797,225.185,101.466,228.509,97.845z M125.971,240.185c0.687,0,1.072,0.001,1.458,0
		c12.599-0.053,25.198-0.147,37.796-0.12c2.235,0.005,3.945-0.77,5.432-2.289c0.643-0.657,1.257-1.343,1.864-2.034
		c24.633-28.03,49.269-56.056,73.892-84.094c31.828-36.242,63.65-72.49,95.45-108.756c1.336-1.524,2.582-3.173,3.598-4.922
		c1.616-2.783,1.897-5.798,0.402-8.727c-2.348-4.603-6.167-7.56-10.989-9.261c-0.627-0.221-1.334-0.274-2.007-0.293
		c-2.993-0.087-5.281,1.403-7.24,3.452c-2.017,2.11-3.919,4.328-5.898,6.474c-25.78,27.968-51.564,55.933-77.348,83.898
		c-30.935,33.552-61.872,67.101-92.802,100.658c-7.075,7.676-14.123,15.376-21.171,23.076
		C127.615,238.114,126.903,239.056,125.971,240.185z M99.761,336.565c-0.765-0.483-1.344-0.985-2.017-1.254
		c-7.451-2.972-14.892-5.972-22.4-8.795c-1.42-0.534-3.172-0.638-4.684-0.398c-5.835,0.926-11.618,2.173-17.454,3.09
		c-2.684,0.422-4.341,1.627-5.184,4.224c-3.669,11.312-7.406,22.602-11.115,33.902c-0.103,0.313-0.167,0.639-0.301,1.163
		C57.728,357.818,78.636,347.247,99.761,336.565z M196.665,239.717c0.502,0.119,0.8,0.227,1.107,0.257
		c4.713,0.467,9.401,0.355,14.035-0.699c8.506-1.935,14.676-6.731,17.998-14.906c2.921-7.189,2.886-14.688,2.155-22.243
		c-0.066-0.68-0.189-1.355-0.322-2.29C219.883,213.241,208.326,226.42,196.665,239.717z M125.283,336.04
		c0,1.381-0.045,2.617,0.009,3.849c0.15,3.422,1.604,5.328,4.978,5.916c2.78,0.484,5.639,0.805,8.453,0.742
		c4.3-0.096,8.629-0.339,12.877-0.976c4.461-0.669,6.418-4.158,5.134-9.531C146.314,336.04,135.891,336.04,125.283,336.04z
		 M213.112,344.967c-1.997-1.737-3.79-3.26-5.541-4.827c-3.459-3.096-7.531-4.624-12.137-4.615
		c-5.269,0.009-10.537,0.137-15.805,0.244c-1.229,0.025-1.973,1.315-1.449,2.376c0.494,1.001,0.99,2.002,1.467,3.011
		c0.68,1.439,1.758,2.374,3.244,3.001C192.766,348.323,202.757,347.446,213.112,344.967z"/>
</g>
</svg>
