<?xml version="1.0" encoding="utf-8"?>
<!-- Generator: Adobe Illustrator 17.0.0, SVG Export Plug-In . SVG Version: 6.00 Build 0)  -->
<!DOCTYPE svg PUBLIC "-//W3C//DTD SVG 1.1//EN" "http://www.w3.org/Graphics/SVG/1.1/DTD/svg11.dtd">
<svg version="1.1" id="Layer_1_xA0_Imagem_1_" xmlns="http://www.w3.org/2000/svg" xmlns:xlink="http://www.w3.org/1999/xlink"
	 x="0px" y="0px" width="225px" height="221px" viewBox="0 0 225 221" enable-background="new 0 0 225 221" xml:space="preserve">
<g>
	<path d="M226,70c0,48.667,0,97.333,0,146c-1.924,4.359-5.551,5.159-9.825,4.845c-2.32-0.17-4.664,0.004-6.996-0.041
		c-5.843-0.114-7.642-1.932-7.81-7.851c-0.033-1.165-0.006-2.333-0.006-3.499c0-37.159,0.001-74.317-0.001-111.476
		c0-7.265-0.005-7.273-7.096-7.274c-53.822-0.002-107.643-0.001-161.465-0.001c-0.833,0-1.667-0.024-2.499,0.007
		c-4.024,0.15-4.544,0.671-4.658,4.694c-0.033,1.165-0.007,2.333-0.007,3.499c0,37.159,0,74.317-0.001,111.476
		c0,1.333,0.093,2.676-0.036,3.997c-0.418,4.273-2.456,6.226-6.772,6.4c-2.828,0.114-5.683-0.173-8.493,0.086
		C6.084,221.254,2.907,219.937,1,216c0-48.667,0-97.333,0-146c2.138-4.749,6.027-7.515,10.488-9.926
		c7.014-3.792,13.81-7.986,20.693-12.019c25.087-14.697,50.181-29.381,75.247-44.114c4.117-2.42,8.044-2.42,12.158,0.007
		c14.312,8.442,28.671,16.803,43.007,25.203c19.064,11.17,38.108,22.374,57.203,33.491c2.268,1.321,3.964,2.922,4.881,5.394
		C224.943,68.755,225.549,69.349,226,70z"/>
	<path d="M71.898,196.501c-0.435,3.088-0.709,5.881-1.248,8.622c-0.538,2.735-2.085,4.909-4.661,6.092
		c-4.933,2.265-9.965,2.298-14.877,0.003c-3.1-1.448-4.707-4.088-4.874-7.535c-0.073-1.496-0.115-2.995-0.117-4.493
		c-0.012-6.827,0.143-13.659-0.04-20.482c-0.274-10.2,0.816-20.182,4.26-30.105c-1.221-0.705-2.368-1.276-3.418-1.99
		c-2.76-1.879-4.428-4.409-4.581-7.849c-0.238-5.369,4.04-9.203,9.304-8.225c1.752,0.325,3.471,0.826,5.504,1.319
		c1.645-3.899,3.447-7.456,4.667-11.202c3.041-9.335,11.576-16.151,23.802-16.215c18.65-0.098,37.304-0.226,55.951,0.049
		c10.851,0.16,19.12,4.86,23.218,15.527c1.477,3.844,3.185,7.6,4.894,11.648c1.587-0.249,3.032-0.39,4.434-0.711
		c4.108-0.942,7.812,0.283,9.562,3.241c1.912,3.233,1.166,8.138-1.891,10.931c-1.436,1.312-3.215,2.249-4.904,3.401
		c1.006,4.807,2.057,9.624,3.005,14.461c0.38,1.937,0.737,3.917,0.755,5.88c0.101,10.99,0.16,21.981,0.103,32.97
		c-0.035,6.742-4.179,10.741-10.916,10.827c-0.832,0.011-1.669-0.05-2.497,0.01c-6.55,0.475-11.33-3.739-11.967-11.173
		c-0.138-1.609-0.02-3.241-0.02-4.719C151.058,195.735,77.176,195.57,71.898,196.501z M113.532,150.26
		c13.641,0,27.281,0.031,40.922-0.035c1.957-0.009,4.011-0.188,5.845-0.808c3.283-1.111,4.84-3.951,3.607-7.09
		c-3.265-8.31-6.603-16.608-10.368-24.699c-2.192-4.711-6.493-6.977-11.755-6.985c-18.964-0.028-37.928-0.05-56.891,0.051
		c-1.908,0.01-3.922,0.616-5.693,1.389c-3.316,1.448-5.669,3.993-7.052,7.384c-2.876,7.05-5.829,14.069-8.62,21.152
		c-2.156,5.472,0.192,9.088,6.092,9.61c1.156,0.102,2.328,0.03,3.492,0.03C86.584,150.26,100.058,150.259,113.532,150.26z
		 M74.021,182.303c0-0.003,0-0.005,0-0.008c2.818,0,5.641,0.12,8.451-0.03c3.77-0.201,5.668-2.187,5.854-5.965
		c0.097-1.984,0.118-3.984-0.017-5.964c-0.234-3.439-2.206-5.487-5.708-5.581c-5.631-0.151-11.272-0.148-16.903-0.011
		c-3.632,0.088-5.731,2.307-5.958,5.959c-0.113,1.816-0.104,3.65-0.004,5.467c0.213,3.872,2.351,5.956,6.33,6.113
		C68.714,182.387,71.369,182.303,74.021,182.303z M152.497,182.3c0,0.003,0,0.006,0,0.009c1.824,0,3.656-0.111,5.47,0.02
		c6.103,0.442,9.4-0.727,9.066-9.445c-0.056-1.472-0.317-2.95-0.625-4.394c-0.475-2.226-2.127-3.596-4.193-3.658
		c-6.293-0.189-12.604-0.249-18.891,0.02c-3.218,0.138-4.533,1.992-4.648,5.273c-0.069,1.987-0.042,3.979-0.009,5.968
		c0.075,4.423,1.462,5.946,5.873,6.181C147.185,182.414,149.844,182.3,152.497,182.3z"/>
</g>
</svg>
