<?xml version="1.0" encoding="utf-8"?>
<!-- Generator: Adobe Illustrator 17.1.0, SVG Export Plug-In . SVG Version: 6.00 Build 0)  -->
<!DOCTYPE svg PUBLIC "-//W3C//DTD SVG 1.1//EN" "http://www.w3.org/Graphics/SVG/1.1/DTD/svg11.dtd">
<svg version="1.1" id="Layer_1_xA0_Imagem_1_" xmlns="http://www.w3.org/2000/svg" xmlns:xlink="http://www.w3.org/1999/xlink"
	 x="0px" y="0px" viewBox="0 0 225 181" enable-background="new 0 0 225 181" xml:space="preserve">
<g>
	<path d="M1,56c0.7-8.1,1.5-16.1,2.1-24.2c0.5-6,0.5-12,1.2-17.9c0.2-1.5,2-2.8,3.1-4.3c0.8,1.4,2.3,2.8,2.3,4.2
		C9.5,23.9,9,34.1,8.6,44.2c-0.1,1.3-0.5,2.8-0.1,4c0.9,2,2.3,3.8,3.5,5.7c1.6-1.8,4.4-3.5,4.6-5.4c0.7-7.3,0.4-14.6,0.6-22
		c0.1-4-0.1-8,0.4-11.9c0.2-1.7,2-3.2,3.1-4.9c1,1.6,2.9,3.2,3,4.9c0.6,10,0.8,19.9,1.1,29.9c0.1,1.7-0.5,3.6,0.3,4.9
		c1,1.8,2.9,3,4.3,4.5c1.2-1.5,3.3-2.9,3.5-4.6c0.5-3.9,0.1-8-0.1-12c-0.4-7.6-1.1-15.3-1.2-22.9c0-1.5,1.6-3.1,2.5-4.7
		c1.1,1.4,3.2,2.7,3.3,4.1c1,15.8,1.9,31.5,2.3,47.3c0.1,5.5-2.7,10.2-7.6,13.2c-5.2,3.2-7.1,7.6-6.6,13.9c2.1,26,3.8,52.1,5.6,78.1
		c0.5,6.7-2.6,11.8-8,15.6c-1.3,0-2.7,0-4,0c-6.1-3.4-8.4-8.6-7.9-15.4c1.7-25.2,3.3-50.4,4.9-75.6c0.3-5.3,1.3-11.1-3.9-14.6
		C6.3,72.6,3,67.4,1,61C1,59.3,1,57.7,1,56z"/>
	<path d="M214,182c-6.9-3.6-8.5-9.6-8.1-16.8c1.4-22,2.7-44.1,4.1-66.1c0.2-3.4,0.3-6.1-4.4-6.7c-1.7-0.2-4.4-3.2-4.4-5
		c0.1-19.7-3-39.7,3.3-58.9c2.7-8.3,7.5-15.8,11.4-23.7c0.6-1.3,1.4-2.6,2.1-3.9c0.7,0,1.3,0,2,0c0.3,2.3,0.7,4.6,0.7,6.9
		c0.1,20.8,0,41.5,0,62.3c0,8.6-0.3,17.3,0.2,25.9c1.1,20.7,2.6,41.4,3.9,62.1c0.1,1.9,0.7,3.9,1.1,5.8c0,2.3,0,4.7,0,7
		c-2,4.5-4.2,8.8-9,11C216,182,215,182,214,182z"/>
	<path fill="#FFFFFF" d="M217,182c4.8-2.2,7-6.5,9-11c0,3.7,0,7.3,0,11C223,182,220,182,217,182z"/>
	<path d="M191,87.6c0.1,40.9-32.9,74.2-74,73.9c-42-0.4-71.8-32.5-74-69.8c-2.5-42.7,31.3-78.1,73.5-78.5
		C158.2,12.8,191.8,47.3,191,87.6z M116.9,30.5C86.2,30.6,60.2,56.2,60,86.5c-0.2,31.7,25.4,57.6,56.7,57.7
		c30.6,0.1,57-24.2,57.2-56.6C174.2,55,147,29.9,116.9,30.5z"/>
	<path d="M116.9,128.1c-23.4-0.1-40.9-18-40.8-41.8c0.1-22.2,18.7-39.9,41.8-39.9c22.4,0,41.8,20.3,40.1,43.7
		C156.6,110.5,138.7,129,116.9,128.1z"/>
</g>
</svg>
