<?xml version="1.0" encoding="utf-8"?>
<!-- Generator: Adobe Illustrator 17.1.0, SVG Export Plug-In . SVG Version: 6.00 Build 0)  -->
<!DOCTYPE svg PUBLIC "-//W3C//DTD SVG 1.1//EN" "http://www.w3.org/Graphics/SVG/1.1/DTD/svg11.dtd">
<svg version="1.1" id="Layer_1_xA0_Imagem_1_" xmlns="http://www.w3.org/2000/svg" xmlns:xlink="http://www.w3.org/1999/xlink"
	 x="0px" y="0px" viewBox="0 0 189 189" enable-background="new 0 0 189 189" xml:space="preserve">
<g>
	<path d="M149.4,66.6c-3.6,0-6.1,0-8.5,0c-8.8,0-8.6,0-9.5-9c-0.7-7.2-1.3-14.6-3.2-21.6c-1-3.5-4.1-7.1-7.2-9.3
		c-7.6-5.4-16.7-7.2-25.9-7.6c-16.8-0.8-33.6-2-50.1,2.4c-4.6,1.2-9.1,3.3-13,6c-2.7,1.8-5.4,5.1-5.9,8.2
		c-2.2,12.6-3.7,25.3-5.3,37.9c-0.1,1,0.1,2,0.3,3.5c17.8,0,35.5,0,54.1,0c-1.8,4.7-3.3,8.6-4.8,12.5c-3.3,8.5-7.3,16.8-9.8,25.5
		c-1.9,6.4-2.1,13.3-2.7,20c-0.4,3.6-0.2,7.3,0,11c0.2,3.3-0.8,5.2-4.4,4.8c-4.1-0.4-5.5,1.5-5.5,5.6c0.2,14.5,1.3,13-13.2,13.1
		c-5.7,0-11.3-0.2-17,0c-4.6,0.2-6.3-2.1-6.2-6.3c0-1.5-0.1-3,0-4.5c0.3-5.7,0.1-10.9-5.1-15.2c-2.4-2-3.7-6.5-3.8-9.9
		c-0.4-19-0.8-38,0.1-57C3.1,66.2,6,55.7,7.8,45c0.8-4.9,1.8-9.8,2.6-14.7c1.2-7.8,5.2-13.4,12.2-17.2c11.1-6,23-9,35.6-10
		c17.7-1.4,35.3-1.7,52.5,2.4c8.1,2,16,5.7,23.3,9.8c3.5,2,6.8,6.5,7.7,10.4C144.8,39,146.8,52.4,149.4,66.6z M34.7,94.8
		c-7.4-0.1-14.8,7.1-14.9,14.7c-0.1,7.6,7,14.8,14.6,14.9c7.6,0.1,14.9-7.1,14.9-14.6C49.3,102.1,42.3,94.9,34.7,94.8z"/>
	<path d="M128,77.4c11,0,22,0.1,33,0c6.1-0.1,10.2,2.5,12.4,8.1c4.6,11.4,9.3,22.8,13.7,34.2c1,2.6,1.4,5.5,1.4,8.3
		c0.1,18,0.1,36,0.1,54c0,6-0.7,6.7-6.5,6.7c-4.8,0-9.7-0.1-14.5,0c-4.2,0.1-6.2-1.8-6.1-5.9c0-2.5-0.2-5,0-7.5
		c0.4-4-0.9-5.6-5.2-5.6c-18.7,0.2-37.3,0.2-56,0c-4.4,0-5.8,1.6-5.7,5.8c0.2,14.6,1.3,13.1-13.1,13.1c-14.5,0-13.3,1.6-13.3-13.5
		c0-15.5-0.2-31,0.1-46.5c0.1-4,1-8.2,2.4-12c3.6-9.8,7.7-19.4,11.6-29.1c3.2-7.9,6.3-10,14.6-10C107.3,77.4,117.7,77.4,128,77.4z
		 M174.4,124.1c-4.9-10.9-9.1-20.7-13.8-30.3c-0.7-1.4-3.6-2.5-5.6-2.5c-17.7-0.2-35.3-0.1-53-0.1c-4,0-6.4,2-7.9,5.7
		c-2.7,6.6-5.7,13.1-8.5,19.7c-1,2.3-1.8,4.7-2.9,7.6C113.3,124.1,143.1,124.1,174.4,124.1z M165.7,161.4c8.2,0,14.7-6.3,14.7-14.3
		c0-8-6.5-14.5-14.5-14.5c-8.3,0-14.5,6.1-14.5,14.4C151.4,155.4,157.3,161.4,165.7,161.4z M90.8,161.4c8.1,0,14.6-6.4,14.6-14.4
		c0-8-6.6-14.4-14.6-14.4c-8.4,0-14.3,5.9-14.2,14.5C76.6,155.6,82.3,161.4,90.8,161.4z"/>
</g>
</svg>
